---
http_interactions:
- request:
    method: get
    uri: http://sandbox.v2.badgeville.com/api/berlin/thisisyourbadgevilleapikey/rewards.json?include_totals=true&page=1&per_page=10
    body: ''
    headers:
      User-Agent:
      - badgeville gem 1.0.0
      Accept:
      - application/json
  response:
    status:
      code: 200
      message: OK
    headers:
      Server:
      - nginx/0.8.55
      Date:
      - Tue, 13 Dec 2011 16:32:02 GMT
      Content-Type:
      - application/json; charset=utf-8
      Transfer-Encoding:
      - chunked
      Connection:
      - close
      Status:
      - 200 OK
      Etag:
      - ! '"062d11adf6958650cde78c0d1fd9209e"'
      Cache-Control:
      - max-age=0, private, must-revalidate
      Set-Cookie:
      - _Badgeville_session=BAh7BkkiD3Nlc3Npb25faWQGOgZFRiIlNDQ2YjVlY2NmZDVkMDQ1ZTE4ODA1MTgyNDNlNTU3N2M%3D--b891a6c64fa167cc864d479f9a5b5722009ed6d9;
        path=/; expires=Tue, 27-Dec-2011 16:32:02 GMT; HttpOnly
      X-Runtime:
      - '0.095354'
      Content-Encoding:
      - gzip
    body: ! '{"data":[{"name":"Season Champion in a Battlefield: Bad Company 2 Team
      Ladder","created_at":"2011-09-08T12:52:25-07:00","activity_id":"4e691cf9c47eed2809000093","id":"4e691cf9c47eed2809000094","user_id":"4e691cf8c47eed280900008f","site_id":"4d9f67f951c21c5100000013","definition":{"type":"rewarddefinition","name":"Season
      Champion in a Battlefield: Bad Company 2 Team Ladder","created_at":"2011-09-08T12:39:47-07:00","assignable":false,"allow_duplicates":false,"components":"[{\"comparator\":{\"$gte\":1},\"command\":\"count\",\"where\":{\"verb\":\"ps3_battlefield-bad-company-2_team_won_seasonplayoffs\",\"user_id\":\"%user_id\",\"site_id\":\"%site_id\",\"game\":\"battlefield-bad-company-2\",\"sku\":\"ps3\",\"ladder\":\"team\"}}]","reward_template":{"message":"Season
      Champion in a Battlefield: Bad Company 2 Team Ladder"},"tags":"medal,online_competition,ladder,ps3,battlefield-bad-company-2,team","site_id":"4d9f67f951c21c5100000013","image_url":"http://s3.amazonaws.com/badgeville-production-reward-definitions/images/4e691a02c47eed2829000011/original.png?1315510786","image_file_name":"GB_seasonChamp.png","data":{},"_id":"4e691a02c47eed2829000011","id":"4e691a02c47eed2829000011","active":true,"hint":null,"message":"Season
      Champion in a Battlefield: Bad Company 2 Team Ladder","active_start_at":null,"active_end_at":null},"image":"http://s3.amazonaws.com/badgeville-production-reward-definitions/images/4e691a02c47eed2829000011/original.png?1315510786","tags":["medal","online_competition","ladder","ps3","battlefield-bad-company-2","team"],"status":null,"message":"Season
      Champion in a Battlefield: Bad Company 2 Team Ladder","history":null,"next_reward_id":null},{"name":"Seeded
      in a Battlefield: Bad Company 2 Team Ladder Playoff","created_at":"2011-09-08T12:52:24-07:00","activity_id":"4e691cf8c47eed2809000091","id":"4e691cf8c47eed2809000092","user_id":"4e691cf8c47eed280900008f","site_id":"4d9f67f951c21c5100000013","definition":{"type":"rewarddefinition","name":"Seeded
      in a Battlefield: Bad Company 2 Team Ladder Playoff","created_at":"2011-09-08T12:39:45-07:00","assignable":false,"allow_duplicates":false,"components":"[{\"comparator\":{\"$gte\":1},\"command\":\"count\",\"where\":{\"verb\":\"ps3_battlefield-bad-company-2_team_seeded_ladderplayoffs\",\"user_id\":\"%user_id\",\"site_id\":\"%site_id\",\"game\":\"battlefield-bad-company-2\",\"sku\":\"ps3\",\"ladder\":\"team\"}}]","reward_template":{"message":"Seeded
      in a Battlefield: Bad Company 2 Team Ladder Playoff"},"tags":"medal,online_competition,ladder,ps3,battlefield-bad-company-2,team","site_id":"4d9f67f951c21c5100000013","image_url":"http://s3.amazonaws.com/badgeville-production-reward-definitions/images/4e691a01c47eed282900000e/original.png?1315510785","image_file_name":"GB_playoffs.png","data":{},"_id":"4e691a01c47eed282900000e","id":"4e691a01c47eed282900000e","active":true,"hint":null,"message":"Seeded
      in a Battlefield: Bad Company 2 Team Ladder Playoff","active_start_at":null,"active_end_at":null},"image":"http://s3.amazonaws.com/badgeville-production-reward-definitions/images/4e691a01c47eed282900000e/original.png?1315510785","tags":["medal","online_competition","ladder","ps3","battlefield-bad-company-2","team"],"status":null,"message":"Seeded
      in a Battlefield: Bad Company 2 Team Ladder Playoff","history":null,"next_reward_id":null},{"name":null,"created_at":"2011-09-08T12:18:52-07:00","activity_id":"4e69151cc47eed14870000ee","id":"4e69151cc47eed14870000ef","user_id":"4e6914e6c47eed14870000a9","site_id":"4d9f67f951c21c5100000013","definition":null,"image":null,"tags":["badge","online_competition","olt","xbox360","halo3"],"status":null,"message":"Got
      8th place in a Xbox 360 Halo 3 Online Tournament","history":null,"next_reward_id":null},{"name":null,"created_at":"2011-09-08T12:18:51-07:00","activity_id":"4e69151bc47eed14870000ec","id":"4e69151bc47eed14870000ed","user_id":"4e6914e6c47eed14870000a9","site_id":"4d9f67f951c21c5100000013","definition":null,"image":null,"tags":["badge","online_competition","olt","xbox360","halo3"],"status":null,"message":"Got
      7th place in a Xbox 360 Halo 3 Online Tournament","history":null,"next_reward_id":null},{"name":null,"created_at":"2011-09-08T12:18:50-07:00","activity_id":"4e69151ac47eed14870000ea","id":"4e69151ac47eed14870000eb","user_id":"4e6914e6c47eed14870000a9","site_id":"4d9f67f951c21c5100000013","definition":null,"image":null,"tags":["badge","online_competition","olt","xbox360","halo3"],"status":null,"message":"Got
      6th place in a Xbox 360 Halo 3 Online Tournament","history":null,"next_reward_id":null},{"name":null,"created_at":"2011-09-08T12:18:49-07:00","activity_id":"4e691519c47eed14870000e8","id":"4e691519c47eed14870000e9","user_id":"4e6914e6c47eed14870000a9","site_id":"4d9f67f951c21c5100000013","definition":null,"image":null,"tags":["badge","online_competition","olt","xbox360","halo3"],"status":null,"message":"Got
      5th place in a Xbox 360 Halo 3 Online Tournament","history":null,"next_reward_id":null},{"name":null,"created_at":"2011-09-08T12:18:48-07:00","activity_id":"4e691518c47eed14870000e6","id":"4e691518c47eed14870000e7","user_id":"4e6914e6c47eed14870000a9","site_id":"4d9f67f951c21c5100000013","definition":null,"image":null,"tags":["badge","online_competition","olt","xbox360","halo3"],"status":null,"message":"Got
      4th place in a Xbox 360 Halo 3 Online Tournament","history":null,"next_reward_id":null},{"name":null,"created_at":"2011-09-08T12:18:47-07:00","activity_id":"4e691516c47eed14870000e2","id":"4e691517c47eed14870000e3","user_id":"4e6914e6c47eed14870000a9","site_id":"4d9f67f951c21c5100000013","definition":null,"image":null,"tags":["badge","online_competition","olt","xbox360","halo3"],"status":null,"message":"Got
      2nd place in a Xbox 360 Halo 3 Online Tournament","history":null,"next_reward_id":null},{"name":null,"created_at":"2011-09-08T12:18:47-07:00","activity_id":"4e691517c47eed14870000e4","id":"4e691517c47eed14870000e5","user_id":"4e6914e6c47eed14870000a9","site_id":"4d9f67f951c21c5100000013","definition":null,"image":null,"tags":["badge","online_competition","olt","xbox360","halo3"],"status":null,"message":"Got
      3rd place in a Xbox 360 Halo 3 Online Tournament","history":null,"next_reward_id":null},{"name":null,"created_at":"2011-09-08T12:18:46-07:00","activity_id":"4e691515c47eed14870000e0","id":"4e691516c47eed14870000e1","user_id":"4e6914e6c47eed14870000a9","site_id":"4d9f67f951c21c5100000013","definition":null,"image":null,"tags":["badge","online_competition","olt","xbox360","halo3"],"status":null,"message":"Got
      1st place in a Xbox 360 Halo 3 Online Tournament","history":null,"next_reward_id":null}],"paging":{"current_page":1,"per_page":10,"total_entries":1830,"total_pages":183}}'
    http_version: '1.1'
  recorded_at: Tue, 13 Dec 2011 16:32:02 GMT
recorded_with: VCR 2.0.0.rc1
