---
http_interactions:
- request:
    method: get
    uri: http://sandbox.v2.badgeville.com/api/berlin/thisisyourbadgevilleapikey/players.json?include_totals=true&page=1&per_page=15
    body: ''
    headers:
      User-Agent:
      - badgeville gem 1.0.0
      Accept:
      - application/json
  response:
    status:
      code: 200
      message: OK
    headers:
      Server:
      - nginx/0.8.55
      Date:
      - Tue, 13 Dec 2011 14:56:53 GMT
      Content-Type:
      - application/json; charset=utf-8
      Transfer-Encoding:
      - chunked
      Connection:
      - close
      Status:
      - 200 OK
      Etag:
      - ! '"8100ef614feb4be97c1fc759e3f22799"'
      Cache-Control:
      - max-age=0, private, must-revalidate
      Set-Cookie:
      - _Badgeville_session=BAh7BkkiD3Nlc3Npb25faWQGOgZFRiIlZWI5NjE1OGNkZWU4YmNlOTE5NGE0ZDQxMTUzYmZkZGY%3D--cb9abc3f4b92b98c0b05f9b0ba8ed9c6504a8a6c;
        path=/; expires=Tue, 27-Dec-2011 14:56:53 GMT; HttpOnly
      X-Runtime:
      - '0.347808'
      Content-Encoding:
      - gzip
    body: ! '{"data":[{"_id":"4de5090dc47eed17720004b5","id":"4de5090dc47eed17720004b5","name":"117","first_name":null,"last_name":null,"display_name":null,"nick_name":null,"email":"117@staging-badgeville-somedomain.com","user_email":"117@staging-badgeville-somedomain.com","created_at":"2011-05-31T08:28:13-07:00","user_id":"4d938dcf51c21c3fc100005b","site_id":"4d700bd351c21c1e3c000004","site_url":"community.stagingdomain.com","admin":false,"points_day":0.0,"points_week":0.0,"points_month":0.0,"points_all":0.0,"facebook_id":null,"facebook_link":null,"twitter_id":null,"twitter_username":null,"twitter_link":null,"email_notifications":null,"custom_picture_url":null,"picture_url":null,"preferences":{"hide_notifications":false,"publish_activity":true,"email_notifications":null},"tracks":{}},{"_id":"4de3e2d9c47eed1777000335","id":"4de3e2d9c47eed1777000335","name":null,"first_name":null,"last_name":null,"display_name":null,"nick_name":null,"email":"76@staging-badgeville-somedomain.com","user_email":"76@staging-badgeville-somedomain.com","created_at":"2011-05-30T11:32:57-07:00","user_id":"4de3e2d9c47eed1777000334","site_id":"4d700bd351c21c1e3c000004","site_url":"community.stagingdomain.com","admin":false,"points_day":0.0,"points_week":0.0,"points_month":0.0,"points_all":0.0,"facebook_id":null,"facebook_link":null,"twitter_id":null,"twitter_username":null,"twitter_link":null,"email_notifications":null,"custom_picture_url":null,"picture_url":null,"preferences":{"hide_notifications":false,"publish_activity":true,"email_notifications":null},"tracks":{}},{"_id":"4dd2fbeec47eed6b27000a59","id":"4dd2fbeec47eed6b27000a59","name":null,"first_name":null,"last_name":null,"display_name":null,"nick_name":null,"email":"77@staging-badgeville-somedomain.com","user_email":"77@staging-badgeville-somedomain.com","created_at":"2011-05-17T15:51:26-07:00","user_id":"4dd2fbeec47eed6b27000a58","site_id":"4d700bd351c21c1e3c000004","site_url":"community.stagingdomain.com","admin":false,"points_day":0.0,"points_week":0.0,"points_month":0.0,"points_all":0.0,"facebook_id":null,"facebook_link":null,"twitter_id":null,"twitter_username":null,"twitter_link":null,"email_notifications":null,"custom_picture_url":null,"picture_url":null,"preferences":{"hide_notifications":false,"publish_activity":true,"email_notifications":null},"tracks":{}},{"_id":"4dcc4c58c47eed597300cd02","id":"4dcc4c58c47eed597300cd02","name":"1","first_name":null,"last_name":null,"display_name":null,"nick_name":null,"email":"1@staging-badgeville-somedomain.com","user_email":"1@staging-badgeville-somedomain.com","created_at":"2011-05-12T14:08:40-07:00","user_id":"4d8912ac51c21c493c000081","site_id":"4d700bd351c21c1e3c000004","site_url":"community.stagingdomain.com","admin":false,"points_day":0.0,"points_week":0.0,"points_month":0.0,"points_all":0.0,"facebook_id":null,"facebook_link":null,"twitter_id":null,"twitter_username":null,"twitter_link":null,"email_notifications":null,"custom_picture_url":null,"picture_url":null,"preferences":{"hide_notifications":false,"publish_activity":true,"email_notifications":null},"tracks":{}},{"_id":"4dcd4a29c47eed5973011202","id":"4dcd4a29c47eed5973011202","name":"137","first_name":null,"last_name":null,"display_name":null,"nick_name":null,"email":"137@staging-badgeville-somedomain.com","user_email":"137@staging-badgeville-somedomain.com","created_at":"2011-05-13T08:11:37-07:00","user_id":"4d82734851c21c4941000060","site_id":"4d700bd351c21c1e3c000004","site_url":"community.stagingdomain.com","admin":false,"points_day":0.0,"points_week":0.0,"points_month":0.0,"points_all":0.0,"facebook_id":null,"facebook_link":null,"twitter_id":null,"twitter_username":null,"twitter_link":null,"email_notifications":null,"custom_picture_url":null,"picture_url":null,"preferences":{"hide_notifications":false,"publish_activity":true,"email_notifications":null},"tracks":{}},{"_id":"4dcd5345c47eed59700113c7","id":"4dcd5345c47eed59700113c7","name":"136","first_name":null,"last_name":null,"display_name":null,"nick_name":null,"email":"136@staging-badgeville-somedomain.com","user_email":"136@staging-badgeville-somedomain.com","created_at":"2011-05-13T08:50:29-07:00","user_id":"4d82722a51c21c4933000026","site_id":"4d700bd351c21c1e3c000004","site_url":"community.stagingdomain.com","admin":false,"points_day":0.0,"points_week":0.0,"points_month":0.0,"points_all":0.0,"facebook_id":null,"facebook_link":null,"twitter_id":null,"twitter_username":null,"twitter_link":null,"email_notifications":null,"custom_picture_url":null,"picture_url":null,"preferences":{"hide_notifications":false,"publish_activity":true,"email_notifications":null},"tracks":{}},{"_id":"4dcd8941c47eed6b2a000065","id":"4dcd8941c47eed6b2a000065","name":"22","first_name":null,"last_name":null,"display_name":null,"nick_name":null,"email":"22@staging-badgeville-somedomain.com","user_email":"22@staging-badgeville-somedomain.com","created_at":"2011-05-13T12:40:49-07:00","user_id":"4d8a0afb51c21c4941000113","site_id":"4d700bd351c21c1e3c000004","site_url":"community.stagingdomain.com","admin":false,"points_day":0.0,"points_week":0.0,"points_month":0.0,"points_all":0.0,"facebook_id":null,"facebook_link":null,"twitter_id":null,"twitter_username":null,"twitter_link":null,"email_notifications":null,"custom_picture_url":null,"picture_url":null,"preferences":{"hide_notifications":false,"publish_activity":true,"email_notifications":null},"tracks":{}},{"_id":"4dcd89d1c47eed6b2a00006a","id":"4dcd89d1c47eed6b2a00006a","name":"6","first_name":null,"last_name":null,"display_name":null,"nick_name":null,"email":"6@staging-badgeville-somedomain.com","user_email":"6@staging-badgeville-somedomain.com","created_at":"2011-05-13T12:43:13-07:00","user_id":"4d94ec9d51c21c798d00001f","site_id":"4d700bd351c21c1e3c000004","site_url":"community.stagingdomain.com","admin":false,"points_day":0.0,"points_week":0.0,"points_month":0.0,"points_all":0.0,"facebook_id":null,"facebook_link":null,"twitter_id":null,"twitter_username":null,"twitter_link":null,"email_notifications":null,"custom_picture_url":null,"picture_url":null,"preferences":{"hide_notifications":false,"publish_activity":true,"email_notifications":null},"tracks":{}},{"_id":"4dcd8c3ac47eed6b2a000077","id":"4dcd8c3ac47eed6b2a000077","name":"3","first_name":null,"last_name":null,"display_name":null,"nick_name":null,"email":"3@staging-badgeville-somedomain.com","user_email":"3@staging-badgeville-somedomain.com","created_at":"2011-05-13T12:53:30-07:00","user_id":"4d8a348f51c21c494100011d","site_id":"4d700bd351c21c1e3c000004","site_url":"community.stagingdomain.com","admin":false,"points_day":0.0,"points_week":0.0,"points_month":0.0,"points_all":0.0,"facebook_id":null,"facebook_link":null,"twitter_id":null,"twitter_username":null,"twitter_link":null,"email_notifications":null,"custom_picture_url":null,"picture_url":null,"preferences":{"hide_notifications":false,"publish_activity":true,"email_notifications":null},"tracks":{}},{"_id":"4dcd9c03c47eed6b2700006e","id":"4dcd9c03c47eed6b2700006e","name":"193","first_name":null,"last_name":null,"display_name":null,"nick_name":null,"email":"193@staging-badgeville-somedomain.com","user_email":"193@staging-badgeville-somedomain.com","created_at":"2011-05-13T14:00:51-07:00","user_id":"4d83adc151c21c4941000078","site_id":"4d700bd351c21c1e3c000004","site_url":"community.stagingdomain.com","admin":false,"points_day":0.0,"points_week":0.0,"points_month":0.0,"points_all":0.0,"facebook_id":null,"facebook_link":null,"twitter_id":null,"twitter_username":null,"twitter_link":null,"email_notifications":null,"custom_picture_url":null,"picture_url":null,"preferences":{"hide_notifications":false,"publish_activity":true,"email_notifications":null},"tracks":{}},{"_id":"4dcd9c8dc47eed6b27000071","id":"4dcd9c8dc47eed6b27000071","name":"127","first_name":null,"last_name":null,"display_name":null,"nick_name":null,"email":"127@staging-badgeville-somedomain.com","user_email":"127@staging-badgeville-somedomain.com","created_at":"2011-05-13T14:03:09-07:00","user_id":"4d8b7afc51c21c6245000004","site_id":"4d700bd351c21c1e3c000004","site_url":"community.stagingdomain.com","admin":false,"points_day":0.0,"points_week":0.0,"points_month":0.0,"points_all":0.0,"facebook_id":null,"facebook_link":null,"twitter_id":null,"twitter_username":null,"twitter_link":null,"email_notifications":null,"custom_picture_url":null,"picture_url":null,"preferences":{"hide_notifications":false,"publish_activity":true,"email_notifications":null},"tracks":{}},{"_id":"4dceff8fc47eed6b2a0004d6","id":"4dceff8fc47eed6b2a0004d6","name":"14","first_name":null,"last_name":null,"display_name":null,"nick_name":null,"email":"14@staging-badgeville-somedomain.com","user_email":"14@staging-badgeville-somedomain.com","created_at":"2011-05-14T15:17:51-07:00","user_id":"4d82721951c21c494100005b","site_id":"4d700bd351c21c1e3c000004","site_url":"community.stagingdomain.com","admin":false,"points_day":0.0,"points_week":0.0,"points_month":0.0,"points_all":0.0,"facebook_id":null,"facebook_link":null,"twitter_id":null,"twitter_username":null,"twitter_link":null,"email_notifications":null,"custom_picture_url":null,"picture_url":null,"preferences":{"hide_notifications":false,"publish_activity":true,"email_notifications":null},"tracks":{}},{"_id":"4dd12aa0c47eed6b2a0007ed","id":"4dd12aa0c47eed6b2a0007ed","name":null,"first_name":null,"last_name":null,"display_name":null,"nick_name":null,"email":"261@staging-badgeville-somedomain.com","user_email":"261@staging-badgeville-somedomain.com","created_at":"2011-05-16T06:46:08-07:00","user_id":"4dd12aa0c47eed6b2a0007ec","site_id":"4d700bd351c21c1e3c000004","site_url":"community.stagingdomain.com","admin":false,"points_day":0.0,"points_week":0.0,"points_month":0.0,"points_all":0.0,"facebook_id":null,"facebook_link":null,"twitter_id":null,"twitter_username":null,"twitter_link":null,"email_notifications":null,"custom_picture_url":null,"picture_url":null,"preferences":{"hide_notifications":false,"publish_activity":true,"email_notifications":null},"tracks":{}},{"_id":"4dd12e47c47eed6b2a0007f9","id":"4dd12e47c47eed6b2a0007f9","name":null,"first_name":null,"last_name":null,"display_name":null,"nick_name":null,"email":"54@staging-badgeville-somedomain.com","user_email":"54@staging-badgeville-somedomain.com","created_at":"2011-05-16T07:01:43-07:00","user_id":"4dcab6adc47eed597000aed2","site_id":"4d700bd351c21c1e3c000004","site_url":"community.stagingdomain.com","admin":false,"points_day":0.0,"points_week":0.0,"points_month":0.0,"points_all":0.0,"facebook_id":null,"facebook_link":null,"twitter_id":null,"twitter_username":null,"twitter_link":null,"email_notifications":null,"custom_picture_url":null,"picture_url":null,"preferences":{"hide_notifications":false,"publish_activity":true,"email_notifications":null},"tracks":{}},{"_id":"4dd14d8fc47eed6b2700062d","id":"4dd14d8fc47eed6b2700062d","name":"7","first_name":null,"last_name":null,"display_name":null,"nick_name":null,"email":"7@staging-badgeville-somedomain.com","user_email":"7@staging-badgeville-somedomain.com","created_at":"2011-05-16T09:15:11-07:00","user_id":"4d83aabe51c21c4941000074","site_id":"4d700bd351c21c1e3c000004","site_url":"community.stagingdomain.com","admin":false,"points_day":0.0,"points_week":0.0,"points_month":0.0,"points_all":0.0,"facebook_id":null,"facebook_link":null,"twitter_id":null,"twitter_username":null,"twitter_link":null,"email_notifications":null,"custom_picture_url":null,"picture_url":null,"preferences":{"hide_notifications":false,"publish_activity":true,"email_notifications":null},"tracks":{}}],"paging":{"current_page":1,"per_page":15,"total_entries":13780,"total_pages":919}}'
    http_version: '1.1'
  recorded_at: Tue, 13 Dec 2011 14:56:53 GMT
recorded_with: VCR 2.0.0.rc1
