---
http_interactions:
- request:
    method: get
    uri: http://sandbox.v2.badgeville.com/api/berlin/thisisyourbadgevilleapikey/sites.json?include_totals=true&page=1&per_page=10
    body: ''
    headers:
      User-Agent:
      - badgeville gem 1.0.0
      Accept:
      - application/json
  response:
    status:
      code: 200
      message: OK
    headers:
      Server:
      - nginx/0.8.55
      Date:
      - Tue, 13 Dec 2011 20:03:51 GMT
      Content-Type:
      - application/json; charset=utf-8
      Transfer-Encoding:
      - chunked
      Connection:
      - close
      Status:
      - 200 OK
      Etag:
      - ! '"6c40f45a064a22fe7e9e2637ada10f04"'
      Cache-Control:
      - max-age=0, private, must-revalidate
      Set-Cookie:
      - _Badgeville_session=BAh7BkkiD3Nlc3Npb25faWQGOgZFRiIlMmQwNWUyODQ3NjI1ODQ2NGJlZGU2NjE4ZTJlOGIyYmE%3D--abe550bd7af56eeff016e252f5977f27739ac45e;
        path=/; expires=Tue, 27-Dec-2011 20:03:51 GMT; HttpOnly
      X-Runtime:
      - '0.037532'
      Content-Encoding:
      - gzip
    body: ! '{"data":[{"name":"Generic BDV Property (localhost)","created_at":"2011-03-04T15:01:02-08:00","url":"localhost","id":"4d716f2e51c21c15f8000002","_id":"4d716f2e51c21c15f8000002"},{"name":"BadgevilleBattles
      (Production)","created_at":"2011-03-07T06:00:38-08:00","url":"BadgevilleBattles.com","id":"4d74e50651c21c15f7000180","_id":"4d74e50651c21c15f7000180"},{"name":"BadgevilleBattles
      (Prototype)","created_at":"2011-04-08T12:54:33-07:00","url":"prototype.BadgevilleBattles.com","id":"4d9f67f951c21c5100000013","_id":"4d9f67f951c21c5100000013"},{"name":"BadgevilleBattles
      (Staging)","created_at":"2011-03-07T06:00:55-08:00","url":"staging.BadgevilleBattles.com","id":"4d74e51751c21c15f9000164","_id":"4d74e51751c21c15f9000164"},{"name":"BDV
      Community (Production)","created_at":"2011-03-04T15:00:32-08:00","url":"community.somedomain.com","id":"4d716f1051c21c15f7000001","_id":"4d716f1051c21c15f7000001"},{"name":"BDV
      Community (Staging)","created_at":"2011-03-03T13:44:51-08:00","url":"community.stagingdomain.com","id":"4d700bd351c21c1e3c000004","_id":"4d700bd351c21c1e3c000004"},{"name":"BDV
      Forums (Production)","created_at":"2011-03-07T05:57:04-08:00","url":"forums.somedomain.com","id":"4d74e43051c21c15f700017d","_id":"4d74e43051c21c15f700017d"},{"name":"BDV
      Forums (Staging)","created_at":"2011-03-07T05:56:49-08:00","url":"forums.stagingdomain.com","id":"4d74e42151c21c15f900015f","_id":"4d74e42151c21c15f900015f"},{"name":"BDV
      Pro Circuit (Production)","created_at":"2011-03-07T06:15:57-08:00","url":"pro.somedomain.com","id":"4d74e89d51c21c15f9000167","_id":"4d74e89d51c21c15f9000167"},{"name":"BDV
      Pro Circuit (Staging)","created_at":"2011-03-07T06:15:41-08:00","url":"pro.stagingdomain.com","id":"4d74e88d51c21c15f7000182","_id":"4d74e88d51c21c15f7000182"}],"paging":{"current_page":1,"per_page":10,"total_entries":14,"total_pages":2}}'
    http_version: '1.1'
  recorded_at: Tue, 13 Dec 2011 20:03:51 GMT
recorded_with: VCR 2.0.0.rc1
