---
http_interactions:
- request:
    method: get
    uri: http://sandbox.v2.badgeville.com/api/berlin/thisisyourbadgevilleapikey/reward_definitions.json?include_totals=true&page=1&per_page=10&site=community.stagingdomain.com
    body: ''
    headers:
      User-Agent:
      - badgeville gem 1.0.0
      Accept:
      - application/json
  response:
    status:
      code: 200
      message: OK
    headers:
      Server:
      - nginx/0.8.55
      Date:
      - Tue, 03 Jan 2012 19:42:17 GMT
      Content-Type:
      - application/json; charset=utf-8
      Transfer-Encoding:
      - chunked
      Connection:
      - close
      Status:
      - 200 OK
      Etag:
      - ! '"3c482b1538cd9ebc88eba918ee7783a5"'
      Cache-Control:
      - max-age=0, private, must-revalidate
      Set-Cookie:
      - _Badgeville_session=BAh7BkkiD3Nlc3Npb25faWQGOgZFRiIlOTI1YzdhNTM5YTg2M2Y1N2U3YzQzNTg3MzA2MjZkZGE%3D--e8b3dc4d996e4f7305f6f6f539368eede0242888;
        path=/; expires=Tue, 17-Jan-2012 19:42:17 GMT; HttpOnly
      X-Runtime:
      - '0.469460'
      Content-Encoding:
      - gzip
    body: ! '{"data":[{"type":"rewarddefinition","name":"1st place in three or more
      matches in a PS3 Resistance 3 Ladder","created_at":"2011-10-12T11:02:55-07:00","assignable":false,"allow_duplicates":false,"components":"[{\"comparator\":{\"$gte\":3},\"command\":\"count\",\"where\":{\"verb\":\"ps3_resistance-3_won_laddermatchfirst_threematches\",\"user_id\":\"%user_id\",\"site_id\":\"%site_id\",\"game\":\"resistance-3\",\"sku\":\"ps3\"}}]","reward_template":{"message":"1st
      place in three or more matches in a PS3 Resistance 3 Ladder"},"tags":"badge,online_competition,ladder,ps3,resistance-3","site_id":"4d700bd351c21c1e3c000004","image_url":"http://s3.amazonaws.com/badgeville-production-reward-definitions/images/4e95d64f4d6ce6552001b2f7/original.png?1318442575","image_file_name":"1stFor3.png","data":{},"_id":"4e95d64f4d6ce6552001b2f7","id":"4e95d64f4d6ce6552001b2f7","active":true,"hint":"","message":"1st
      place in three or more matches in a PS3 Resistance 3 Ladder","active_start_at":null,"active_end_at":null},{"type":"rewarddefinition","name":"2004
      Season Points Winner","created_at":"2011-05-12T13:58:53-07:00","assignable":false,"allow_duplicates":false,"components":"[{\"command\":\"count\",\"comparator\":{\"$gte\":1},\"where\":{\"verb\":\"season_points_winner\",\"user_id\":\"%user_id\",\"year\":\"2004\",\"site_id\":\"%site_id\"}}]","reward_template":{"message":"Congratulations!"},"tags":"medal,live_competition","site_id":"4d700bd351c21c1e3c000004","image_url":"http://s3.amazonaws.com/badgeville-production-reward-definitions/images/4dcc4a0cc47eed597000c4fc/original.png?1305233932","image_file_name":"PC_2004seasonChamp.png","data":{},"_id":"4dcc4a0cc47eed597000c4fc","id":"4dcc4a0cc47eed597000c4fc","active":true,"hint":null,"message":"Congratulations!","active_start_at":null,"active_end_at":null},{"type":"rewarddefinition","name":"2005
      Season Points Winner","created_at":"2011-05-12T13:58:53-07:00","assignable":false,"allow_duplicates":false,"components":"[{\"command\":\"count\",\"comparator\":{\"$gte\":1},\"where\":{\"verb\":\"season_points_winner\",\"user_id\":\"%user_id\",\"year\":\"2005\",\"site_id\":\"%site_id\"}}]","reward_template":{"message":"Congratulations!"},"tags":"medal,live_competition","site_id":"4d700bd351c21c1e3c000004","image_url":"http://s3.amazonaws.com/badgeville-production-reward-definitions/images/4dcc4a0dc47eed597000c4fe/original.png?1305233933","image_file_name":"PC_2005seasonChamp.png","data":{},"_id":"4dcc4a0dc47eed597000c4fe","id":"4dcc4a0dc47eed597000c4fe","active":true,"hint":null,"message":"Congratulations!","active_start_at":null,"active_end_at":null},{"type":"rewarddefinition","name":"2006
      Season Points Winner","created_at":"2011-05-12T13:58:54-07:00","assignable":false,"allow_duplicates":false,"components":"[{\"command\":\"count\",\"comparator\":{\"$gte\":1},\"where\":{\"verb\":\"season_points_winner\",\"user_id\":\"%user_id\",\"year\":\"2006\",\"site_id\":\"%site_id\"}}]","reward_template":{"message":"Congratulations!"},"tags":"medal,live_competition","site_id":"4d700bd351c21c1e3c000004","image_url":"http://s3.amazonaws.com/badgeville-production-reward-definitions/images/4dcc4a0ec47eed597000c500/original.png?1305233934","image_file_name":"PC_2006seasonChamp.png","data":{},"_id":"4dcc4a0ec47eed597000c500","id":"4dcc4a0ec47eed597000c500","active":true,"hint":null,"message":"Congratulations!","active_start_at":null,"active_end_at":null},{"type":"rewarddefinition","name":"2007
      Season Points Winner","created_at":"2011-05-12T13:58:55-07:00","assignable":false,"allow_duplicates":false,"components":"[{\"command\":\"count\",\"comparator\":{\"$gte\":1},\"where\":{\"verb\":\"season_points_winner\",\"user_id\":\"%user_id\",\"year\":\"2007\",\"site_id\":\"%site_id\"}}]","reward_template":{"message":"Congratulations!"},"tags":"medal,live_competition","site_id":"4d700bd351c21c1e3c000004","image_url":"http://s3.amazonaws.com/badgeville-production-reward-definitions/images/4dcc4a0fc47eed597000c502/original.png?1305233935","image_file_name":"PC_2007seasonChamp.png","data":{},"_id":"4dcc4a0fc47eed597000c502","id":"4dcc4a0fc47eed597000c502","active":true,"hint":null,"message":"Congratulations!","active_start_at":null,"active_end_at":null},{"type":"rewarddefinition","name":"2008
      Season Points Winner","created_at":"2011-05-12T13:58:56-07:00","assignable":false,"allow_duplicates":false,"components":"[{\"command\":\"count\",\"comparator\":{\"$gte\":1},\"where\":{\"verb\":\"season_points_winner\",\"user_id\":\"%user_id\",\"year\":\"2008\",\"site_id\":\"%site_id\"}}]","reward_template":{"message":"Congratulations!"},"tags":"medal,live_competition","site_id":"4d700bd351c21c1e3c000004","image_url":"http://s3.amazonaws.com/badgeville-production-reward-definitions/images/4dcc4a10c47eed597000c504/original.png?1305233936","image_file_name":"PC_2008seasonChamp.png","data":{},"_id":"4dcc4a10c47eed597000c504","id":"4dcc4a10c47eed597000c504","active":true,"hint":null,"message":"Congratulations!","active_start_at":null,"active_end_at":null},{"type":"rewarddefinition","name":"2009
      Season Points Winner","created_at":"2011-05-12T13:58:57-07:00","assignable":false,"allow_duplicates":false,"components":"[{\"command\":\"count\",\"comparator\":{\"$gte\":1},\"where\":{\"verb\":\"season_points_winner\",\"user_id\":\"%user_id\",\"year\":\"2009\",\"site_id\":\"%site_id\"}}]","reward_template":{"message":"Congratulations!"},"tags":"medal,live_competition","site_id":"4d700bd351c21c1e3c000004","image_url":"http://s3.amazonaws.com/badgeville-production-reward-definitions/images/4dcc4a11c47eed597300ca97/original.png?1305233937","image_file_name":"PC_2009seasonChamp.png","data":{},"_id":"4dcc4a11c47eed597300ca97","id":"4dcc4a11c47eed597300ca97","active":true,"hint":null,"message":"Congratulations!","active_start_at":null,"active_end_at":null},{"type":"rewarddefinition","name":"2010
      Season Points Winner","created_at":"2011-05-12T13:58:59-07:00","assignable":false,"allow_duplicates":false,"components":"[{\"command\":\"count\",\"comparator\":{\"$gte\":1},\"where\":{\"verb\":\"season_points_winner\",\"user_id\":\"%user_id\",\"year\":\"2010\",\"site_id\":\"%site_id\"}}]","reward_template":{"message":"Congratulations!"},"tags":"medal,live_competition","site_id":"4d700bd351c21c1e3c000004","image_url":"http://s3.amazonaws.com/badgeville-production-reward-definitions/images/4dcc4a13c47eed597300ca99/original.png?1305233939","image_file_name":"PC_2010seasonChamp.png","data":{},"_id":"4dcc4a13c47eed597300ca99","id":"4dcc4a13c47eed597300ca99","active":true,"hint":null,"message":"Congratulations!","active_start_at":null,"active_end_at":null},{"type":"rewarddefinition","name":"API
      Test (V2) Reward","created_at":"2011-05-12T13:59:00-07:00","assignable":false,"allow_duplicates":false,"components":"[{\"command\":\"count\",\"comparator\":{\"$gte\":1},\"where\":{\"verb\":\"api_test_v2\",\"user_id\":\"%user_id\",\"site_id\":\"%site_id\"}}]","reward_template":{"message":"Congratulations!
      You''ve won the API test V2 badge!"},"tags":"API,test,v2","site_id":"4d700bd351c21c1e3c000004","image_url":"http://sandbox.v2.badgeville.com/images/misc/missing_badge.png","image_file_name":null,"data":{},"_id":"4dcc4a14c47eed597300ca9b","id":"4dcc4a14c47eed597300ca9b","active":true,"hint":null,"message":"Congratulations!
      You''ve won the API test V2 badge!","active_start_at":null,"active_end_at":null},{"type":"rewarddefinition","name":"API
      test (V2) reward - gem test","created_at":"2011-12-13T11:44:49-08:00","assignable":false,"allow_duplicates":false,"components":"[{\"comparator\":{\"$gte\":1},\"command\":\"count\",\"where\":{\"verb\":\"api_test_v2\",\"user_id\":\"%user_id\",\"site_id\":\"%site_id\"}}]","reward_template":{"message":"Congratulations!
      You''ve won the API test V2 badge!"},"tags":"API,test,v2","site_id":"4d700bd351c21c1e3c000004","image_url":"http://sandbox.v2.badgeville.com/images/misc/missing_badge.png","image_file_name":null,"data":{},"_id":"4ee7ab313dc64810b40001a4","id":"4ee7ab313dc64810b40001a4","active":true,"hint":null,"message":"Congratulations!
      You''ve won the API test V2 badge!","active_start_at":null,"active_end_at":null}],"paging":{"current_page":1,"per_page":10,"total_entries":15424,"total_pages":1543}}'
    http_version: '1.1'
  recorded_at: Tue, 03 Jan 2012 19:42:17 GMT
recorded_with: VCR 2.0.0.rc1
